<?xml version="1.0" encoding="UTF-8" standalone="no"?>
<!DOCTYPE svg PUBLIC "-//W3C//DTD SVG 1.1//EN"
 "http://www.w3.org/Graphics/SVG/1.1/DTD/svg11.dtd">
<!-- Generated by graphviz version 2.40.1 (20161225.0304)
 -->
<!-- Title: dependencies Pages: 1 -->
<svg width="504pt" height="284pt"
 viewBox="0.00 0.00 504.00 284.00" xmlns="http://www.w3.org/2000/svg" xmlns:xlink="http://www.w3.org/1999/xlink">
<g id="graph0" class="graph" transform="scale(1 1) rotate(0) translate(4 280)">
<title>dependencies</title>
<polygon fill="#ffffff" stroke="transparent" points="-4,4 -4,-280 500,-280 500,4 -4,4"/>
<text text-anchor="start" x="227.0091" y="-42.4" font-family="sans-serif" font-weight="bold" font-size="14.00" fill="#000000">Legend</text>
<polygon fill="#ffffb3" stroke="transparent" points="14,-10 14,-30 34,-30 34,-10 14,-10"/>
<text text-anchor="start" x="37.629" y="-15.4" font-family="sans-serif" font-size="14.00" fill="#000000"> &#160;Declarations</text>
<polygon fill="#8dd3c7" stroke="transparent" points="127,-10 127,-30 147,-30 147,-10 127,-10"/>
<text text-anchor="start" x="150.7251" y="-15.4" font-family="sans-serif" font-size="14.00" fill="#000000"> &#160;Module</text>
<polygon fill="#80b1d3" stroke="transparent" points="213,-10 213,-30 233,-30 233,-10 213,-10"/>
<text text-anchor="start" x="236.7812" y="-15.4" font-family="sans-serif" font-size="14.00" fill="#000000"> &#160;Bootstrap</text>
<polygon fill="#fdb462" stroke="transparent" points="310,-10 310,-30 330,-30 330,-10 310,-10"/>
<text text-anchor="start" x="333.6732" y="-15.4" font-family="sans-serif" font-size="14.00" fill="#000000"> &#160;Providers</text>
<polygon fill="#fb8072" stroke="transparent" points="406,-10 406,-30 426,-30 426,-10 406,-10"/>
<text text-anchor="start" x="429.7258" y="-15.4" font-family="sans-serif" font-size="14.00" fill="#000000"> &#160;Exports</text>
<g id="clust1" class="cluster">
<title>cluster_ItemQueueModule</title>
<polygon fill="none" stroke="#000000" stroke-dasharray="1,5" points="75,-70 75,-268 421,-268 421,-70 75,-70"/>
</g>
<g id="clust2" class="cluster">
<title>cluster_ItemQueueModule_declarations</title>
<polygon fill="none" stroke="#000000" points="253,-78 253,-130 413,-130 413,-78 253,-78"/>
</g>
<g id="clust4" class="cluster">
<title>cluster_ItemQueueModule_imports</title>
<polygon fill="none" stroke="#000000" points="83,-78 83,-130 245,-130 245,-78 83,-78"/>
</g>
<g id="clust5" class="cluster">
<title>cluster_ItemQueueModule_exports</title>
<polygon fill="none" stroke="#000000" points="166,-208 166,-260 330,-260 330,-208 166,-208"/>
</g>
<!-- ItemQueueComponent -->
<g id="node1" class="node">
<title>ItemQueueComponent</title>
<polygon fill="#ffffb3" stroke="#000000" points="404.5254,-122 261.4746,-122 261.4746,-86 404.5254,-86 404.5254,-122"/>
<text text-anchor="middle" x="333" y="-99.8" font-family="Times,serif" font-size="14.00" fill="#000000">ItemQueueComponent</text>
</g>
<!-- ItemQueueModule -->
<g id="node2" class="node">
<title>ItemQueueModule</title>
<polygon fill="#8dd3c7" stroke="#000000" points="308.7423,-187 305.7423,-191 284.7423,-191 281.7423,-187 187.2577,-187 187.2577,-151 308.7423,-151 308.7423,-187"/>
<text text-anchor="middle" x="248" y="-164.8" font-family="Times,serif" font-size="14.00" fill="#000000">ItemQueueModule</text>
</g>
<!-- ItemQueueComponent&#45;&gt;ItemQueueModule -->
<g id="edge1" class="edge">
<title>ItemQueueComponent&#45;&gt;ItemQueueModule</title>
<path fill="none" stroke="#000000" d="M285.0544,-122.1061C285.0544,-122.1061 285.0544,-140.991 285.0544,-140.991"/>
<polygon fill="#000000" stroke="#000000" points="281.5544,-140.9909 285.0544,-150.991 288.5544,-140.991 281.5544,-140.9909"/>
</g>
<!-- ItemQueueComponent  -->
<g id="node4" class="node">
<title>ItemQueueComponent </title>
<polygon fill="#fb8072" stroke="#000000" points="321.5246,-252 174.4754,-252 174.4754,-216 321.5246,-216 321.5246,-252"/>
<text text-anchor="middle" x="248" y="-229.8" font-family="Times,serif" font-size="14.00" fill="#000000">ItemQueueComponent </text>
</g>
<!-- ItemQueueModule&#45;&gt;ItemQueueComponent  -->
<g id="edge3" class="edge">
<title>ItemQueueModule&#45;&gt;ItemQueueComponent </title>
<path fill="none" stroke="#000000" stroke-dasharray="5,2" d="M248,-187.1061C248,-187.1061 248,-205.991 248,-205.991"/>
<polygon fill="#000000" stroke="#000000" points="244.5001,-205.9909 248,-215.991 251.5001,-205.991 244.5001,-205.9909"/>
</g>
<!-- SharedMaterialModule -->
<g id="node3" class="node">
<title>SharedMaterialModule</title>
<polygon fill="#8dd3c7" stroke="#000000" points="236.8431,-122 233.8431,-126 212.8431,-126 209.8431,-122 91.1569,-122 91.1569,-86 236.8431,-86 236.8431,-122"/>
<text text-anchor="middle" x="164" y="-99.8" font-family="Times,serif" font-size="14.00" fill="#000000">SharedMaterialModule</text>
</g>
<!-- SharedMaterialModule&#45;&gt;ItemQueueModule -->
<g id="edge2" class="edge">
<title>SharedMaterialModule&#45;&gt;ItemQueueModule</title>
<path fill="none" stroke="#000000" d="M212.0252,-122.1061C212.0252,-122.1061 212.0252,-140.991 212.0252,-140.991"/>
<polygon fill="#000000" stroke="#000000" points="208.5253,-140.9909 212.0252,-150.991 215.5253,-140.991 208.5253,-140.9909"/>
</g>
</g>
</svg>
